<?xml version="1.0" encoding="UTF-8"?>
<svg width="55px" height="55px" viewBox="0 0 55 55" version="1.1" xmlns="http://www.w3.org/2000/svg" xmlns:xlink="http://www.w3.org/1999/xlink">
    <!-- Generator: Sketch 58 (84663) - https://sketch.com -->
    <title>Rough Circle/54px</title>
    <desc>Created with Sketch.</desc>
    <g id="Symbols" stroke="none" stroke-width="1" fill="none" fill-rule="evenodd">
        <g id="Social-Links">
            <g id="Twitter">
                <g id="Rough-Circle/54px">
                    <polygon id="Fill-1" points="0 55 55 55 55 0 0 0"></polygon>
                    <path d="M46.098963,8.90500926 C46.2578519,8.73593519 46.4411852,8.77158333 46.7671111,9.18000926 C47.1918333,9.71269444 47.6318333,10.2321389 48.0779444,10.7454722 L48.0779444,10.7454722 L49.2757222,12.4076944 C50.6873889,14.5598241 52.0135,16.8148241 52.7610926,19.3040833 C53.7154444,22.253713 54.1676667,25.361213 54.1483148,28.4666759 L54.1483148,28.4666759 L54.1116481,29.8528796 C54.0912778,30.3163056 54.0036852,30.7715833 53.9517407,31.2309352 L53.9517407,31.2309352 L53.7735,32.6089907 L53.4852593,33.9676944 C53.3559074,34.6613056 53.1827593,35.347787 52.9240556,36.0088056 C52.6724815,36.6708426 52.4891481,37.3613981 52.1947963,38.0020463 C51.7303519,39.0898241 51.2475741,40.1725093 50.5967407,41.1635278 C50.0253519,42.2024167 49.2838704,43.126213 48.5963704,44.0876944 C48.275537,44.5816759 47.8406296,44.9829722 47.4637778,45.4311204 C47.0624815,45.8578796 46.7009074,46.3253796 46.263963,46.7175093 C45.386,47.4946389 44.5701667,48.3481574 43.6097037,49.0295463 C43.1187778,49.2128796 42.7307222,49.5347315 42.3385926,49.8769537 C41.9271111,50.1896389 41.4952593,50.5013056 40.9870185,50.7090833 C40.1222963,51.101213 39.1771111,51.6776944 38.2288704,52.1156574 C37.7491481,52.3611204 37.2409074,52.5393611 36.7296111,52.7084352 L36.7296111,52.7084352 L35.2018333,53.2299167 C34.8178519,53.332787 34.4124815,53.4733426 34.0621111,53.3806574 L34.0625635,53.3801995 L33.9948889,53.4091759 L33.9999815,53.4193611 L33.9847037,53.4142685 C33.451,53.6424167 32.8897963,53.8451019 32.3041481,53.9235278 C31.7195185,54.0070463 31.1277593,54.0681574 30.5451667,54.1659352 C27.6719259,54.5478796 24.7548889,54.3054722 21.9295185,53.7381574 C20.8417407,53.4774167 19.7498889,53.2319537 18.711,52.80825 C18.1915556,52.6045463 17.6517407,52.45075 17.1475741,52.2093611 L17.1475741,52.2093611 L15.631,51.5004722 C14.7051667,51.1063056 13.8883148,50.4992685 13.0113704,50.0113981 C12.1690556,49.4634352 11.3695185,48.8594537 10.5058148,48.3359352 C10.3010926,48.1821389 10.1096111,48.0395463 9.8835,47.9244537 C9.20109259,47.5751019 8.96785185,47.2888981 9.02081481,46.8213981 C9.13183333,45.7988056 9.6197037,45.0970463 10.6015556,44.8098241 C10.8429444,44.7395463 11.0751667,44.8220463 11.3593333,45.0593611 C12.3259074,45.9464907 13.4116481,46.6696389 14.4658148,47.4345463 L14.4658148,47.4345463 L16.1402593,48.4438981 C16.6963704,48.7871389 17.3044259,49.0326019 17.8829444,49.3442685 C18.488963,49.6895463 19.1713704,49.8749167 19.8354444,50.1051019 C20.170537,50.2100093 20.4985,50.3424167 20.8397037,50.4279722 L20.8397037,50.4279722 L21.8643333,50.6805648 L22.9918333,50.9861204 L24.1427593,51.1949167 C24.5277593,51.2590833 24.9117407,51.3415833 25.2987778,51.3843611 L25.2987778,51.3843611 L26.468037,51.4373241 C26.8550741,51.4413981 27.236,51.5228796 27.618963,51.5473241 C28.0009074,51.5575093 28.3859074,51.5513981 28.7698889,51.458713 C29.1762778,51.3548241 29.4553519,51.6074167 29.933037,51.5534352 C31.0208148,51.3650093 32.1941481,51.3395463 33.2106296,50.963713 C35.8811852,50.1183426 38.5710926,49.2546389 40.8872037,47.6341759 C41.8272963,46.8855648 42.8254444,46.2153796 43.6728519,45.3567685 C43.8938704,45.1520463 44.1199815,44.9381574 44.3613704,44.7670463 C45.108963,44.1864907 45.745537,43.4694537 46.3841481,42.7615833 C46.928037,41.9783426 47.5381296,41.2378796 48.0310926,40.4240833 C49.6148889,38.0580648 50.5325741,35.3325093 51.2119259,32.5896389 C51.4309074,31.906213 51.4899815,31.1535278 51.4991481,30.4375093 C51.5093333,29.9842685 51.5185,29.5249167 51.5347963,29.0696389 C51.5612778,28.6153796 51.6152593,28.1651944 51.6712778,27.730287 C51.7374815,26.8350093 51.6692407,25.938713 51.5908148,25.0546389 C51.4166481,24.1797315 51.3198889,23.2966759 51.1222963,22.4299167 L51.1222963,22.4299167 L50.6996111,20.6780648 C50.4938704,20.112787 50.2891481,19.5485278 50.086463,18.9893611 C49.9326667,18.5004722 49.7096111,18.0401019 49.4916481,17.5756574 C49.2726667,17.11325 49.073037,16.6396389 48.8387778,16.1843611 L48.8387778,16.1843611 L48.0402593,14.8694537 L47.6277593,14.223713 L47.1378519,13.6299167 C46.6785,13.1013056 46.3535926,12.5940833 46.0694259,12.1622315 C45.773037,11.7405648 45.5774815,11.3463981 45.4786852,10.9726019 C45.2790556,10.2270463 45.4552593,9.5619537 46.016463,8.98343519 L46.016463,8.98343519 Z M27.0534815,0.751768519 C27.5372778,1.57371296 27.6503333,2.42010185 27.2816296,3.30112037 C27.1909815,3.5170463 27.0239444,3.61686111 26.7469074,3.63519444 C24.7862593,3.77371296 22.8632963,4.09250926 20.9444074,4.53047222 C19.932,4.77389815 18.9470926,5.19556481 17.977463,5.59991667 C16.8947778,6.02973148 15.7998704,6.47991667 14.8302407,7.13482407 C14.3403333,7.44547222 13.7689444,7.61556481 13.3757963,8.06880556 C13.1731111,8.31325 12.8746852,8.24093519 12.5935741,8.4670463 C11.9529259,8.9895463 11.239963,9.49880556 10.7133889,10.1139907 C10.0360741,10.9308426 9.32412963,11.6988056 8.62033333,12.4789907 C8.06778704,13.2071042 7.43959983,13.8946678 6.98618602,14.6952055 L6.8032963,15.0456574 L6.14737037,16.2251019 L5.59227778,17.4554722 C5.50061111,17.6622315 5.40894444,17.8771389 5.28468519,18.0614907 C4.62010185,19.1633241 4.26406852,20.4186074 3.95893769,21.6684457 L3.85875926,22.0846389 L3.65912963,22.8556574 L3.55116667,23.6470463 L3.35764815,25.227787 C3.35662963,26.2921389 3.22931481,27.3493611 3.27718519,28.4147315 C3.28533333,28.9494537 3.26088889,29.51575 3.44218519,30.0351944 C3.68459259,30.6880648 3.72635185,31.387787 3.74977778,32.047787 C3.82616667,32.7179722 4.00746296,33.3667685 4.18468519,34.0094537 C4.35274074,34.6551944 4.66440741,35.2520463 4.84875926,35.8926944 C5.08098148,36.7696389 5.57292593,37.5467685 5.93755556,38.3595463 C6.65968519,39.7070463 7.41440741,41.067787 8.46857407,42.1963056 C8.79959259,42.6006574 9.10107407,42.93575 9.31496296,43.2616759 C9.5257963,43.5896389 9.65005556,43.9063981 9.69385185,44.2180648 C9.77321142,44.7866528 9.58298187,45.3398356 9.11767156,45.8721218 L8.98394444,46.0167685 L8.90246296,46.0951944 C8.74051852,46.26325 8.58366667,46.2561204 8.34533333,45.9444537 C7.74237037,45.1133426 6.98968519,44.4136204 6.42848148,43.5499167 C5.97544444,42.91925 5.49763704,42.3081389 5.08058222,41.65557 L4.78051852,41.1574167 L4.01764815,39.9178796 C3.79255556,39.4890833 3.59190741,39.0470463 3.38412963,38.6080648 C2.84737037,37.5722315 2.50107407,36.4579722 2.09468519,35.3661204 C1.892,34.8191759 1.782,34.24575 1.617,33.6865833 C1.4682963,33.1233426 1.28903704,32.566213 1.20551852,31.9876944 C1.08431481,31.3063056 0.960055556,30.6218611 0.8745,29.9343611 C0.828666667,29.2417685 0.781814815,28.5491759 0.712555556,27.8555648 C0.648388889,26.8013981 0.763481481,25.7350093 0.811351852,24.6788056 C0.919314815,23.7998241 1.00996296,22.9147315 1.20755556,22.0510278 C1.44181481,21.1954722 1.61598148,20.3246389 1.88487037,19.480287 C2.17514815,18.651213 2.41348148,17.798713 2.77607407,16.9951019 C3.15801852,16.2026944 3.46866667,15.3726019 3.89033333,14.5975093 C4.52385185,14.0933426 4.55338889,13.2184352 5.13190741,12.6164907 C5.66968519,12.1255648 6.0445,11.3749167 6.50690741,10.7434352 C7.00598148,10.1099167 7.58246296,9.5395463 8.12024074,8.93963889 C8.29759028,8.74803009 8.45466493,8.51431192 8.69381387,8.43704178 L8.80162963,8.41408333 L8.80061111,8.41408333 L8.83116667,8.36825 L8.82301852,8.36112037 L8.83625926,8.36112037 C9.30274074,7.60232407 10.0666296,7.09917593 10.7337593,6.52371296 C12.3908889,5.11408333 14.3036667,4.04565741 16.2602407,3.12287963 C17.7798704,2.40787963 19.3932037,1.9169537 21.0126481,1.50343519 C22.4782963,1.13371296 23.9785741,0.982972222 25.461537,0.696768519 C25.652,0.660101852 25.8292222,0.625472222 26.0095,0.547046296 C26.5564444,0.316861111 26.8334815,0.378990741 27.0534815,0.751768519 Z M27.6668333,0.892731481 L27.6668333,0.892731481 C28.0070185,0.986435185 28.3461852,0.993564815 28.6873889,1.0149537 C29.3310926,1.08217593 29.9819259,1.03023148 30.6256296,1.11476852 C31.3966481,1.19930556 32.1676667,1.28486111 32.9437778,1.37041667 C33.4061852,1.41828704 33.8563704,1.52421296 34.3197963,1.58125 C34.6732222,1.62199074 35.0072963,1.75032407 35.3535926,1.82671296 C35.9351667,1.94791667 36.4719259,2.20763889 37.0321111,2.39810185 C37.5953519,2.56615741 38.1198889,2.83606481 38.6851667,3.01328704 C38.7961852,3.36875 39.1923889,3.12736111 39.3665556,3.39523148 C39.4922698,3.59689815 39.7414535,3.61897298 39.9563223,3.69620816 L40.0601667,3.74050926 L40.7588704,4.14689815 C40.8322037,4.19054894 40.9287343,4.20426776 40.9419899,4.32787968 L40.9411852,4.39949074 L40.9422037,4.39847222 L40.9646111,4.39643519 L40.9697037,4.38726852 L40.9686852,4.39236111 C41.3272037,4.35162037 41.5125741,4.62763889 41.7794259,4.75699074 C42.4373889,5.07273148 42.966,5.58606481 43.5567407,5.9975463 C44.0038704,6.33365741 44.4133148,6.71763889 44.836,7.08125 C45.2271111,7.39699074 45.5438704,7.79421296 46.0195185,8.01930556 C46.0816481,8.04680556 46.1397037,8.07125 46.2303519,8.06615741 C46.5022963,8.05291667 46.5297963,8.15578704 46.3128519,8.47662037 C45.8412778,9.17634259 45.2668333,9.80273148 44.5620185,10.3343981 C44.3888704,10.4647685 44.2819259,10.493287 44.205537,10.4393056 C43.6748889,10.0441204 43.1972037,9.61023148 42.7521111,9.12032407 C42.5229444,8.85143519 42.1797037,8.71087963 41.9220185,8.47050926 C41.6398889,8.20060185 41.3750741,7.89708333 41.0379444,7.70050926 C40.8678519,7.60680556 40.8281296,7.32467593 40.5796111,7.35013889 C40.4492407,7.36236111 40.5276667,7.1199537 40.4217407,7.06291667 C40.1752593,6.93560185 39.9786852,6.70236111 39.7087778,6.6300463 C39.092956,6.47230324 38.6494708,6.00887731 38.0958383,5.74469112 L37.851,5.64513889 L37.0066481,5.32837963 C36.9363704,5.30189815 36.8620185,5.27847222 36.808037,5.21736111 C36.4607222,4.82217593 35.955537,4.78856481 35.5257222,4.58282407 C34.8677593,4.30884259 34.1456296,4.2599537 33.4866481,3.98291667 C33.3216481,3.90550926 33.1423889,3.84847222 32.9427593,3.92282407 C32.6901667,4.01652778 32.4752593,3.90856481 32.2766481,3.79449074 C31.8610926,3.56430556 31.390537,3.68449074 30.9597037,3.57143519 C30.6653519,3.51236111 30.3597963,3.50828704 30.0634074,3.48587963 C29.5531296,3.45226852 29.0418333,3.35143519 28.5254444,3.45837963 C27.8594722,3.62268519 27.5424394,2.98702862 27.5034782,1.52926375 L27.4997963,1.31541667 L27.5008148,1.20032407 C27.499287,1.02615741 27.5206759,0.920167824 27.5860362,0.893097512 L27.622478,0.886188694 Z" id="Combined-Shape" fill="#FFFFFF" fill-rule="evenodd"></path>
                </g>
            </g>
        </g>
    </g>
</svg>