<?xml version="1.0" encoding="UTF-8"?>
<svg width="50px" height="50px" viewBox="0 0 50 50" version="1.1" xmlns="http://www.w3.org/2000/svg" xmlns:xlink="http://www.w3.org/1999/xlink">
    <!-- Generator: Sketch 58 (84663) - https://sketch.com -->
    <title>Rough Circle/54px/Fill</title>
    <desc>Created with Sketch.</desc>
    <g id="Large-Desktop" stroke="none" stroke-width="1" fill="none" fill-rule="evenodd">
        <g id="2.0-Large-Desktop-/-2.0-Find-a-Fat-Hippo-–-Map-View-–-Default-–-@2x" transform="translate(-818.000000, -758.000000)" fill="#000000">
            <g id="Map" transform="translate(0.000000, 110.000000)">
                <g id="Pins" transform="translate(768.000000, 28.000000)">
                    <g id="Location-Default-State-Copy-3" transform="translate(50.000000, 620.000000)">
                        <g id="Rough-Circle/54px/Fill">
                            <path d="M24.5940741,0.683425926 C24.8234848,1.07318272 24.9611964,1.46898561 24.9928858,1.87214865 L25.0301578,1.87171147 C25.0169757,1.72652644 25.0081042,1.56905134 25.0034068,1.39924349 L24.9998148,1.19583333 L25.0007407,1.0912037 C24.999418,0.940410053 25.0169917,0.845833333 25.0699962,0.815909459 L25.1061829,0.805780963 L25.1516667,0.811574074 C25.4609259,0.896759259 25.7692593,0.903240741 26.0794444,0.922685185 C26.6646296,0.983796296 27.2562963,0.936574074 27.8414815,1.01342593 C28.5424074,1.09027778 29.2433333,1.16805556 29.9488889,1.24583333 C30.3692593,1.28935185 30.7785185,1.38564815 31.1998148,1.4375 C31.5211111,1.47453704 31.8248148,1.5912037 32.1396296,1.66064815 C32.6683333,1.77083333 33.1562963,2.00694444 33.6655556,2.18009259 C34.1775926,2.33287037 34.6544444,2.57824074 35.1683333,2.73935185 C35.2692593,3.0625 35.6294444,2.84305556 35.7877778,3.08657407 C35.9020635,3.26990741 36.1285941,3.28997543 36.3239294,3.36018923 L36.4183333,3.40046296 L37.0535185,3.76990741 C37.1201852,3.80958995 37.2079403,3.8220616 37.2199908,3.93443608 L37.2192593,3.99953704 L37.2201852,3.99861111 L37.2405556,3.99675926 L37.2451852,3.98842593 L37.2442593,3.99305556 C37.5701852,3.95601852 37.7387037,4.20694444 37.9812963,4.32453704 C38.5794444,4.61157407 39.06,5.07824074 39.597037,5.45231481 C40.0035185,5.75787037 40.3757407,6.10694444 40.76,6.4375 C41.1155556,6.72453704 41.4035185,7.08564815 41.8359259,7.29027778 C41.8924074,7.31527778 41.9451852,7.3375 42.0275926,7.33287037 C42.2748148,7.32083333 42.2998148,7.41435185 42.1025926,7.70601852 C41.7356145,8.25054108 41.3001092,8.74621252 40.780395,9.18083608 C40.9757601,9.44491925 41.1652682,9.71504176 41.34879,9.99072451 L41.3442593,9.97509259 L41.3442593,9.97509259 C41.1779012,9.3537963 41.2986381,8.79396476 41.7128887,8.29987719 L41.8331481,8.16675926 L41.9081481,8.09546296 C42.0525926,7.94175926 42.2192593,7.97416667 42.5155556,8.34546296 C42.772963,8.66830247 43.0365432,8.98579218 43.3038272,9.29985254 L43.7072222,9.76861111 L44.7961111,11.2797222 C46.0794444,13.2362037 47.285,15.2862037 47.9646296,17.5491667 C48.7702513,20.0391138 49.1822742,22.652809 49.2229387,25.2738606 L49.2257407,25.8787963 L49.1924074,27.1389815 C49.1862346,27.2794136 49.1732716,27.4190226 49.1569822,27.5582202 L49.047037,28.3917593 L48.885,29.644537 L48.622963,30.8797222 C48.5053704,31.5102778 48.347963,32.1343519 48.1127778,32.7352778 C47.8840741,33.3371296 47.7174074,33.9649074 47.4498148,34.5473148 C47.0275926,35.5362037 46.5887037,36.520463 45.997037,37.4213889 C45.4775926,38.3658333 44.8035185,39.2056481 44.1785185,40.0797222 C43.8868519,40.5287963 43.4914815,40.8936111 43.1488889,41.3010185 C42.7840741,41.6889815 42.4553704,42.1139815 42.0581481,42.470463 C41.26,43.1769444 40.5183333,43.9528704 39.6451852,44.5723148 C39.1988889,44.7389815 38.8461111,45.0315741 38.4896296,45.3426852 C38.1155556,45.6269444 37.722963,45.9102778 37.2609259,46.0991667 C36.4748148,46.4556481 35.6155556,46.9797222 34.7535185,47.3778704 C34.4264352,47.5452315 34.0847685,47.6782176 33.7382841,47.7990943 L33.3905556,47.9167593 L32.0016667,48.3908333 C31.7024603,48.4709921 31.3889683,48.5763209 31.1049223,48.5517177 L30.9655556,48.5278704 L30.9044444,48.5537963 L30.9090741,48.5630556 L30.9007407,48.5602778 C30.41,48.7658333 29.8998148,48.9500926 29.3674074,49.0213889 C28.8359259,49.0973148 28.297963,49.1528704 27.7683333,49.2417593 C25.1562963,49.5889815 22.5044444,49.3686111 19.9359259,48.8528704 C18.947037,48.6158333 17.9544444,48.3926852 17.01,48.0075 C16.6558333,47.8686111 16.29125,47.7552431 15.9377344,47.6146615 L15.5887037,47.4630556 L14.21,46.8186111 C13.3683333,46.4602778 12.6257407,45.9084259 11.8285185,45.4649074 C11.0627778,44.9667593 10.3359259,44.4176852 9.55074074,43.9417593 C9.36462963,43.8019444 9.19055556,43.6723148 8.985,43.5676852 C8.36462963,43.2500926 8.15259259,42.9899074 8.20074074,42.5649074 C8.30166667,41.6352778 8.74518519,40.9973148 9.63777778,40.7362037 C9.85722222,40.6723148 10.0683333,40.7473148 10.3266667,40.9630556 C11.0589198,41.6351235 11.8664043,42.2036677 12.6698165,42.7769273 L13.1507407,43.1223148 L13.3507563,43.2432275 C7.52423652,39.1536535 3.7037037,32.300807 3.7037037,24.537037 C3.7037037,22.197915 3.75860285,19.9414809 4.14657173,17.8183947 C3.92282871,18.4297155 3.75373509,19.0649211 3.59903426,19.698587 L3.50796296,20.0769444 L3.32648148,20.7778704 L3.22833333,21.4973148 L3.05240741,22.9343519 C3.05148148,23.9019444 2.93574074,24.8630556 2.97925926,25.8315741 C2.98666667,26.3176852 2.96444444,26.8325 3.12925926,27.3047222 C3.34962963,27.8982407 3.38759259,28.5343519 3.40888889,29.1343519 C3.47833333,29.7436111 3.64314815,30.3334259 3.80425926,30.9176852 C3.95703704,31.5047222 4.24037037,32.0473148 4.40796296,32.6297222 C4.61907407,33.4269444 5.0662963,34.1334259 5.39777778,34.8723148 C6.05425926,36.0973148 6.74037037,37.3343519 7.6987037,38.3602778 C7.99962963,38.7278704 8.2737037,39.0325 8.46814815,39.3287963 C8.65981481,39.6269444 8.77277778,39.9149074 8.81259259,40.1982407 C8.88414141,40.710867 8.7146434,41.2097192 8.29922893,41.6899276 L8.16722222,41.8334259 L8.09314815,41.9047222 C7.94592593,42.0575 7.80333333,42.0510185 7.58666667,41.7676852 C7.03851852,41.0121296 6.35425926,40.3760185 5.84407407,39.5908333 C5.43222222,39.0175 4.99785185,38.4619444 4.61871111,37.8687 L4.34592593,37.4158333 L3.65240741,36.2889815 C3.44777778,35.8991667 3.26537037,35.4973148 3.07648148,35.0982407 C2.58851852,34.1565741 2.2737037,33.1436111 1.90425926,32.1510185 C1.76606481,31.7781019 1.6752662,31.3916435 1.5752228,31.0072685 L1.36519676,30.2407899 C1.25877315,29.8576736 1.15287037,29.4741667 1.09592593,29.0797222 C0.985740741,28.4602778 0.872777778,27.8380556 0.795,27.2130556 C0.753333333,26.5834259 0.710740741,25.9537963 0.647777778,25.3232407 C0.589444444,24.3649074 0.694074074,23.395463 0.737592593,22.4352778 C0.835740741,21.6362037 0.918148148,20.8315741 1.09777778,20.0463889 C1.31074074,19.2686111 1.46907407,18.4769444 1.71351852,17.7093519 C1.97740741,16.9556481 2.19407407,16.1806481 2.5237037,15.4500926 C2.87092593,14.7297222 3.15333333,13.9750926 3.53666667,13.270463 C4.11259259,12.8121296 4.13944444,12.0167593 4.66537037,11.469537 C5.15425926,11.0232407 5.495,10.3408333 5.91537037,9.76675926 C6.36907407,9.19083333 6.89314815,8.67231481 7.38203704,8.12694444 C7.53997354,7.95630952 7.68022298,7.74893991 7.89024889,7.6745149 L8.00148148,7.64916667 L8.02833333,7.6075 L8.02092593,7.60101852 L8.03296296,7.60101852 C8.45703704,6.9112037 9.15148148,6.4537963 9.75796296,5.93064815 C11.2644444,4.64916667 13.0033333,3.67787037 14.782037,2.83898148 C16.1635185,2.18898148 17.6301852,1.74268519 19.1024074,1.36675926 C20.4348148,1.03064815 21.7987037,0.893611111 23.1468519,0.633425926 C23.32,0.600092593 23.4811111,0.568611111 23.645,0.497314815 C24.1422222,0.288055556 24.3940741,0.344537037 24.5940741,0.683425926 Z M42.5158999,11.9760304 L42.5299028,11.9987533 C44.3885989,15.5905637 45.3703704,19.9014248 45.3703704,24.537037 C45.3703704,28.4558963 45.1876879,32.4062432 44.2119116,35.8685972 C45.3240162,33.934281 46.0214154,31.7865162 46.5562963,29.6269444 C46.7553704,29.0056481 46.8090741,28.3213889 46.8174074,27.670463 C46.8266667,27.2584259 46.835,26.8408333 46.8498148,26.4269444 C46.8738889,26.0139815 46.922963,25.6047222 46.9738889,25.2093519 C47.0340741,24.395463 46.972037,23.5806481 46.9007407,22.7769444 C46.7819907,22.1804167 46.7028241,21.5797222 46.5948814,20.9842361 L46.4748148,20.3908333 L46.0905556,18.7982407 C45.9035185,18.2843519 45.7174074,17.7713889 45.5331481,17.2630556 C45.3933333,16.8186111 45.1905556,16.4000926 44.9924074,15.9778704 C44.8596914,15.6976235 44.7347942,15.4128498 44.6031756,15.1315055 L44.3988889,14.7130556 L43.672963,13.5176852 L43.297963,12.9306481 L42.8525926,12.3908333 C42.730646,12.2505002 42.6191223,12.1118252 42.5158999,11.9760304 Z" id="Combined-Shape"></path>
                        </g>
                    </g>
                </g>
            </g>
        </g>
    </g>
</svg>